Working with text in R
…
Tools for this approach are provided in the [`tidytext`](https://juliasilge.github.io/tidytext/) package.

---

# Tokenizing the Washington speech

```r
text_df <- tibble(speech = text_clean) %>%
* unnest_tokens(sentence, speech, token = "sentences")

text_df
```

```
## # A tibble: 28 x 1
##    sentence                                                                     
##    <chr>                                                                        
##  1 i embrace with great satisfaction the opportunity which now presents itself …
##  2 the recent accession of the important state of north carolina to the constit…
##  3 in resuming your consultations for the general good you cannot but derive en…
##  4 still further to realize their expectations and to secure the blessings whic…
##  5 among the many interesting objects which will engage your attention that of …
##  6 to be prepared for war is one of the most effectual means of preserving peac…
##  7 a free people ought not only to be armed but disciplined to which end a unif…
##  8 the proper establishment of the troops which may be deemed indispensible wil…
##  9 in the arrangements which may be made respecting it it will be of importance…
## 10 there was reason to hope that the pacific measures adopted with regard to ce…
## # … with 18 more rows
```
…
---

# Split into sentences...

```r
washington_speeches_df %>%
  unnest_tokens(sentence, speech, token = "sentences")
```

```
## # A tibble: 183 x 2
##    speech_name         sentence                                                 
##    <chr>               <chr>                                                    
##  1 1790_01_08_Washing… i embrace with great satisfaction the opportunity which …
##  2 1790_01_08_Washing… the recent accession of the important state of north car…
##  3 1790_01_08_Washing… in resuming your consultations for the general good you …
##  4 1790_01_08_Washing… still further torealize their expectations and to secure…
##  5 1790_01_08_Washing… among the many interesting objects which will engage you…
##  6 1790_01_08_Washing… to be prepared for war is one of the most effectual mean…
##  7 1790_01_08_Washing… a free people ought not only to be armed but disciplined…
##  8 1790_01_08_Washing… the proper establishment of the troops which may be deem…
##  9 1790_01_08_Washing… in the arrangements which may be made respecting it it w…
## 10 1790_01_08_Washing… there was reason to hope that the pacific measures adopt…
## # … with 173 more rows
```
…
```r
washington_by_word <- washington_speeches_df %>%
* unnest_tokens(word, speech, token = "words")
```

--

```r
washington_by_word %>%
  count(word, sort = TRUE)
```

```
## # A tibble: 1,560 x 2
##    word      n
##    <chr> <int>
##  1 the     650
##  2 of      445
##  3 to      280
##  4 and     214
##  5 in      135
##  6 a       115
##  7 which   109
##  8 be      101
##  9 that     89
## 10 for      76
## # … with 1,550 more rows
```
…
```r
data(stop_words) # contained in `tidytext`

washington_words <- washington_by_word %>%
* anti_join(stop_words, by = "word")

washington_count <- washington_words %>%
  count(word, sort = TRUE)

washington_count
```

```
## # A tibble: 1,285 x 2
##    word           n
##    <chr>      <int>
##  1 united        28
##  2 public        25
##  3 citizens      17
##  4 government    17
##  5 measures      17
##  6 provision     17
##  7 proper        16
##  8 law           15
##  9 national      13
## 10 country       12
## # … with 1,275 more rows
```
…
```r
stop_words_modified <- stop_words %>%
  filter(word != "states")

washington_words <- washington_by_word %>%
  anti_join(stop_words_modified, by = "word")

washington_count <- washington_words %>%
  count(word, sort = TRUE)

washington_count
```

```
## # A tibble: 1,286 x 2
##    word           n
##    <chr>      <int>
##  1 states        29
##  2 united        28
##  3 public        25
##  4 citizens      17
##  5 government    17
##  6 measures      17
##  7 provision     17
##  8 proper        16
##  9 law           15
## 10 national      13
## # … with 1,276 more rows
```
…
---

# Bigrams

```r
washington_bigrams <- washington_speeches_df %>%
* unnest_tokens(bigram, speech, token = "ngrams", n = 2)

washington_bigrams
```

```
## # A tibble: 6,830 x 2
##    speech_name           bigram            
##    <chr>                 <chr>             
##  1 1790_01_08_Washington i embrace         
##  2 1790_01_08_Washington embrace with      
##  3 1790_01_08_Washington with great        
##  4 1790_01_08_Washington great satisfaction
##  5 1790_01_08_Washington satisfaction the  
##  6 1790_01_08_Washington the opportunity   
##  7 1790_01_08_Washington opportunity which 
##  8 1790_01_08_Washington which now         
##  9 1790_01_08_Washington now presents      
## 10 1790_01_08_Washington presents itself   
## # … with 6,820 more rows
```
…
```r
washington_bigram_counts <- washington_bigrams %>%
  count(word1, word2, sort = TRUE)

washington_bigram_counts
```

```
## # A tibble: 483 x 3
##    word1    word2          n
##    <chr>    <chr>      <int>
##  1 united   states        27
##  2 fellow   citizens       6
##  3 post     office         5
##  4 post     roads          4
##  5 public   debt           4
##  6 national prosperity     3
##  7 3000000  florins        2
##  8 adequate provision      2
##  9 current  service        2
## 10 due      attention      2
## # … with 473 more rows
```
…
---

# Sentiment: AFINN

Score -5 (most negative) to 5 (most positive)

```r
get_sentiments("afinn") 
```

```
## # A tibble: 2,477 x 2
##    word       value
##    <chr>      <dbl>
##  1 abandon       -2
##  2 abandoned     -2
##  3 abandons      -2
##  4 abducted      -2
##  5 abduction     -2
##  6 abductions    -2
##  7 abhor         -3
##  8 abhorred      -3
##  9 abhorrent     -3
## 10 abhors        -3
## # … with 2,467 more rows
```

---

# Sentiment: bing

binary positive/negative

```r
get_sentiments("bing") 
```

```
## # A tibble: 6,786 x 2
##    word        sentiment
##    <chr>       <chr>    
##  1 2-faces     negative 
##  2 abnormal    negative 
##  3 abolish     negative 
##  4 abominable  negative 
##  5 abominably  negative 
##  6 abominate   negative 
##  7 abomination negative 
##  8 abort       negative 
##  9 aborted     negative 
## 10 aborts      negative 
## # … with 6,776 more rows
```

---

# Sentiment: nrc

categorizes words in a binary fashion (“yes”/“no”) into categories of positive, negative, anger, anticipation, disgust, fear, joy, sadness, surprise, and trust

```r
get_sentiments("nrc") 
```

```
## # A tibble: 13,901 x 2
##    word        sentiment
##    <chr>       <chr>    
##  1 abacus      trust    
##  2 abandon     fear     
##  3 abandon     negative 
##  4 abandon     sadness  
##  5 abandoned   anger    
##  6 abandoned   fear     
##  7 abandoned   negative 
##  8 abandoned   sadness  
##  9 abandonment anger    
## 10 abandonment fear     
## # … with 13,891 more rows
```
…
